E:\sgawade\Project\MAGNA_AIM\NOV\9\MAGNA_AIM\MAGNA_AIM\dist\out-tsc\src\app\Components\Login\Login.component.js
E:\sgawade\Project\MAGNA_AIM\NOV\9\MAGNA_AIM\MAGNA_AIM\dist\out-tsc\src\app\Components\Login\Login.component.js.map
E:\sgawade\Project\MAGNA_AIM\NOV\9\MAGNA_AIM\MAGNA_AIM\dist\out-tsc\src\app\app.component.js
E:\sgawade\Project\MAGNA_AIM\NOV\9\MAGNA_AIM\MAGNA_AIM\dist\out-tsc\src\app\app.component.js.map
E:\sgawade\Project\MAGNA_AIM\NOV\9\MAGNA_AIM\MAGNA_AIM\dist\out-tsc\src\app\Services\Master.service.js
E:\sgawade\Project\MAGNA_AIM\NOV\9\MAGNA_AIM\MAGNA_AIM\dist\out-tsc\src\app\Services\Master.service.js.map
E:\sgawade\Project\MAGNA_AIM\NOV\9\MAGNA_AIM\MAGNA_AIM\dist\out-tsc\src\app\Components\Master\MASTER.component.js
E:\sgawade\Project\MAGNA_AIM\NOV\9\MAGNA_AIM\MAGNA_AIM\dist\out-tsc\src\app\Components\Master\MASTER.component.js.map
E:\sgawade\Project\MAGNA_AIM\NOV\9\MAGNA_AIM\MAGNA_AIM\dist\out-tsc\src\app\Components\Dashboard\Dashboard.component.js
E:\sgawade\Project\MAGNA_AIM\NOV\9\MAGNA_AIM\MAGNA_AIM\dist\out-tsc\src\app\Components\Dashboard\Dashboard.component.js.map
E:\sgawade\Project\MAGNA_AIM\NOV\9\MAGNA_AIM\MAGNA_AIM\dist\out-tsc\src\app\Services\REPORTS\REPORTS.service.js
E:\sgawade\Project\MAGNA_AIM\NOV\9\MAGNA_AIM\MAGNA_AIM\dist\out-tsc\src\app\Services\REPORTS\REPORTS.service.js.map
E:\sgawade\Project\MAGNA_AIM\NOV\9\MAGNA_AIM\MAGNA_AIM\dist\out-tsc\src\app\Components\REPORTS\REPORTS.component.js
E:\sgawade\Project\MAGNA_AIM\NOV\9\MAGNA_AIM\MAGNA_AIM\dist\out-tsc\src\app\Components\REPORTS\REPORTS.component.js.map
E:\sgawade\Project\MAGNA_AIM\NOV\9\MAGNA_AIM\MAGNA_AIM\dist\out-tsc\src\app\Services\REPORTS\VIN_Details.service.js
E:\sgawade\Project\MAGNA_AIM\NOV\9\MAGNA_AIM\MAGNA_AIM\dist\out-tsc\src\app\Services\REPORTS\VIN_Details.service.js.map
E:\sgawade\Project\MAGNA_AIM\NOV\9\MAGNA_AIM\MAGNA_AIM\dist\out-tsc\src\app\Components\REPORTS\VIN_Details\VIN_Details.component.js
E:\sgawade\Project\MAGNA_AIM\NOV\9\MAGNA_AIM\MAGNA_AIM\dist\out-tsc\src\app\Components\REPORTS\VIN_Details\VIN_Details.component.js.map
E:\sgawade\Project\MAGNA_AIM\NOV\9\MAGNA_AIM\MAGNA_AIM\dist\out-tsc\src\app\Services\REPORTS\BirthCertificate.service.js
E:\sgawade\Project\MAGNA_AIM\NOV\9\MAGNA_AIM\MAGNA_AIM\dist\out-tsc\src\app\Services\REPORTS\BirthCertificate.service.js.map
E:\sgawade\Project\MAGNA_AIM\NOV\9\MAGNA_AIM\MAGNA_AIM\dist\out-tsc\src\app\Components\REPORTS\BirthCertificate\BirthCertificate.component.js
E:\sgawade\Project\MAGNA_AIM\NOV\9\MAGNA_AIM\MAGNA_AIM\dist\out-tsc\src\app\Components\REPORTS\BirthCertificate\BirthCertificate.component.js.map
E:\sgawade\Project\MAGNA_AIM\NOV\9\MAGNA_AIM\MAGNA_AIM\dist\out-tsc\src\app\Components\demo\demo.component.js
E:\sgawade\Project\MAGNA_AIM\NOV\9\MAGNA_AIM\MAGNA_AIM\dist\out-tsc\src\app\Components\demo\demo.component.js.map
E:\sgawade\Project\MAGNA_AIM\NOV\9\MAGNA_AIM\MAGNA_AIM\dist\out-tsc\src\app\app.routing.js
E:\sgawade\Project\MAGNA_AIM\NOV\9\MAGNA_AIM\MAGNA_AIM\dist\out-tsc\src\app\app.routing.js.map
E:\sgawade\Project\MAGNA_AIM\NOV\9\MAGNA_AIM\MAGNA_AIM\dist\out-tsc\src\app\app.module.js
E:\sgawade\Project\MAGNA_AIM\NOV\9\MAGNA_AIM\MAGNA_AIM\dist\out-tsc\src\app\app.module.js.map
E:\sgawade\Project\MAGNA_AIM\NOV\9\MAGNA_AIM\MAGNA_AIM\dist\out-tsc\src\environments\environment.js
E:\sgawade\Project\MAGNA_AIM\NOV\9\MAGNA_AIM\MAGNA_AIM\dist\out-tsc\src\environments\environment.js.map
E:\sgawade\Project\MAGNA_AIM\NOV\9\MAGNA_AIM\MAGNA_AIM\dist\out-tsc\src\main.js
E:\sgawade\Project\MAGNA_AIM\NOV\9\MAGNA_AIM\MAGNA_AIM\dist\out-tsc\src\main.js.map
E:\sgawade\Project\MAGNA_AIM\NOV\9\MAGNA_AIM\MAGNA_AIM\dist\out-tsc\src\polyfills.js
E:\sgawade\Project\MAGNA_AIM\NOV\9\MAGNA_AIM\MAGNA_AIM\dist\out-tsc\src\polyfills.js.map
E:\sgawade\Project\MAGNA_AIM\NOV\9\MAGNA_AIM\MAGNA_AIM\dist\out-tsc\src\test.js
E:\sgawade\Project\MAGNA_AIM\NOV\9\MAGNA_AIM\MAGNA_AIM\dist\out-tsc\src\test.js.map
E:\sgawade\Project\MAGNA_AIM\NOV\9\MAGNA_AIM\MAGNA_AIM\dist\out-tsc\src\environments\environment.prod.js
E:\sgawade\Project\MAGNA_AIM\NOV\9\MAGNA_AIM\MAGNA_AIM\dist\out-tsc\src\environments\environment.prod.js.map
E:\sgawade\Project\MAGNA_AIM\NOV\9\MAGNA_AIM\MAGNA_AIM\dist\out-tsc\src\app\app.component.spec.js
E:\sgawade\Project\MAGNA_AIM\NOV\9\MAGNA_AIM\MAGNA_AIM\dist\out-tsc\src\app\app.component.spec.js.map
E:\sgawade\Project\MAGNA_AIM\NOV\9\MAGNA_AIM\MAGNA_AIM\dist\out-tsc\src\app\Services\REPORTS\MoludeList.service.js
E:\sgawade\Project\MAGNA_AIM\NOV\9\MAGNA_AIM\MAGNA_AIM\dist\out-tsc\src\app\Services\REPORTS\MoludeList.service.js.map
E:\sgawade\Project\MAGNA_AIM\NOV\9\MAGNA_AIM\MAGNA_AIM\dist\out-tsc\src\app\Components\test\test.component.js
E:\sgawade\Project\MAGNA_AIM\NOV\9\MAGNA_AIM\MAGNA_AIM\dist\out-tsc\src\app\Components\test\test.component.js.map
E:\sgawade\Project\MAGNA_AIM\NOV\9\MAGNA_AIM\MAGNA_AIM\dist\out-tsc\src\app\Components\test\test.service.js
E:\sgawade\Project\MAGNA_AIM\NOV\9\MAGNA_AIM\MAGNA_AIM\dist\out-tsc\src\app\Components\test\test.service.js.map
E:\sgawade\Project\MAGNA_AIM\NOV\9\MAGNA_AIM\MAGNA_AIM\dist\out-tsc\src\app\Components\test\test.js
E:\sgawade\Project\MAGNA_AIM\NOV\9\MAGNA_AIM\MAGNA_AIM\dist\out-tsc\src\app\Components\test\test.js.map
E:\sgawade\Project\MAGNA_AIM\NOV\9\MAGNA_AIM\MAGNA_AIM\dist\out-tsc\src\app\Components\MODULE\MODULE.component.js
E:\sgawade\Project\MAGNA_AIM\NOV\9\MAGNA_AIM\MAGNA_AIM\dist\out-tsc\src\app\Components\MODULE\MODULE.component.js.map
E:\sgawade\Project\MAGNA_AIM\NOV\9\MAGNA_AIM\MAGNA_AIM\dist\out-tsc\e2e\app.po.js
E:\sgawade\Project\MAGNA_AIM\NOV\9\MAGNA_AIM\MAGNA_AIM\dist\out-tsc\e2e\app.po.js.map
E:\sgawade\Project\MAGNA_AIM\NOV\9\MAGNA_AIM\MAGNA_AIM\dist\out-tsc\e2e\app.e2e-spec.js
E:\sgawade\Project\MAGNA_AIM\NOV\9\MAGNA_AIM\MAGNA_AIM\dist\out-tsc\e2e\app.e2e-spec.js.map
E:\sgawade\Project\MAGNA_AIM\DEC\11\MAGNA_AIM\MAGNA_AIM\dist\out-tsc\src\app\Components\Login\Login.component.js
E:\sgawade\Project\MAGNA_AIM\DEC\11\MAGNA_AIM\MAGNA_AIM\dist\out-tsc\src\app\Components\Login\Login.component.js.map
E:\sgawade\Project\MAGNA_AIM\DEC\11\MAGNA_AIM\MAGNA_AIM\dist\out-tsc\src\app\app.component.js
E:\sgawade\Project\MAGNA_AIM\DEC\11\MAGNA_AIM\MAGNA_AIM\dist\out-tsc\src\app\app.component.js.map
E:\sgawade\Project\MAGNA_AIM\DEC\11\MAGNA_AIM\MAGNA_AIM\dist\out-tsc\src\app\Services\Master.service.js
E:\sgawade\Project\MAGNA_AIM\DEC\11\MAGNA_AIM\MAGNA_AIM\dist\out-tsc\src\app\Services\Master.service.js.map
E:\sgawade\Project\MAGNA_AIM\DEC\11\MAGNA_AIM\MAGNA_AIM\dist\out-tsc\src\app\Components\Master\MASTER.component.js
E:\sgawade\Project\MAGNA_AIM\DEC\11\MAGNA_AIM\MAGNA_AIM\dist\out-tsc\src\app\Components\Master\MASTER.component.js.map
E:\sgawade\Project\MAGNA_AIM\DEC\11\MAGNA_AIM\MAGNA_AIM\dist\out-tsc\src\app\Components\Dashboard\Dashboard.component.js
E:\sgawade\Project\MAGNA_AIM\DEC\11\MAGNA_AIM\MAGNA_AIM\dist\out-tsc\src\app\Components\Dashboard\Dashboard.component.js.map
E:\sgawade\Project\MAGNA_AIM\DEC\11\MAGNA_AIM\MAGNA_AIM\dist\out-tsc\src\app\Services\REPORTS\REPORTS.service.js
E:\sgawade\Project\MAGNA_AIM\DEC\11\MAGNA_AIM\MAGNA_AIM\dist\out-tsc\src\app\Services\REPORTS\REPORTS.service.js.map
E:\sgawade\Project\MAGNA_AIM\DEC\11\MAGNA_AIM\MAGNA_AIM\dist\out-tsc\src\app\Components\REPORTS\REPORTS.component.js
E:\sgawade\Project\MAGNA_AIM\DEC\11\MAGNA_AIM\MAGNA_AIM\dist\out-tsc\src\app\Components\REPORTS\REPORTS.component.js.map
E:\sgawade\Project\MAGNA_AIM\DEC\11\MAGNA_AIM\MAGNA_AIM\dist\out-tsc\src\app\Services\REPORTS\VIN_Details.service.js
E:\sgawade\Project\MAGNA_AIM\DEC\11\MAGNA_AIM\MAGNA_AIM\dist\out-tsc\src\app\Services\REPORTS\VIN_Details.service.js.map
E:\sgawade\Project\MAGNA_AIM\DEC\11\MAGNA_AIM\MAGNA_AIM\dist\out-tsc\src\app\Components\REPORTS\VIN_Details\VIN_Details.component.js
E:\sgawade\Project\MAGNA_AIM\DEC\11\MAGNA_AIM\MAGNA_AIM\dist\out-tsc\src\app\Components\REPORTS\VIN_Details\VIN_Details.component.js.map
E:\sgawade\Project\MAGNA_AIM\DEC\11\MAGNA_AIM\MAGNA_AIM\dist\out-tsc\src\app\Services\REPORTS\BirthCertificate.service.js
E:\sgawade\Project\MAGNA_AIM\DEC\11\MAGNA_AIM\MAGNA_AIM\dist\out-tsc\src\app\Services\REPORTS\BirthCertificate.service.js.map
E:\sgawade\Project\MAGNA_AIM\DEC\11\MAGNA_AIM\MAGNA_AIM\dist\out-tsc\src\app\Components\REPORTS\BirthCertificate\BirthCertificate.component.js
E:\sgawade\Project\MAGNA_AIM\DEC\11\MAGNA_AIM\MAGNA_AIM\dist\out-tsc\src\app\Components\REPORTS\BirthCertificate\BirthCertificate.component.js.map
E:\sgawade\Project\MAGNA_AIM\DEC\11\MAGNA_AIM\MAGNA_AIM\dist\out-tsc\src\app\Components\demo\demo.component.js
E:\sgawade\Project\MAGNA_AIM\DEC\11\MAGNA_AIM\MAGNA_AIM\dist\out-tsc\src\app\Components\demo\demo.component.js.map
E:\sgawade\Project\MAGNA_AIM\DEC\11\MAGNA_AIM\MAGNA_AIM\dist\out-tsc\src\app\app.routing.js
E:\sgawade\Project\MAGNA_AIM\DEC\11\MAGNA_AIM\MAGNA_AIM\dist\out-tsc\src\app\app.routing.js.map
E:\sgawade\Project\MAGNA_AIM\DEC\11\MAGNA_AIM\MAGNA_AIM\dist\out-tsc\src\app\app.module.js
E:\sgawade\Project\MAGNA_AIM\DEC\11\MAGNA_AIM\MAGNA_AIM\dist\out-tsc\src\app\app.module.js.map
E:\sgawade\Project\MAGNA_AIM\DEC\11\MAGNA_AIM\MAGNA_AIM\dist\out-tsc\src\environments\environment.js
E:\sgawade\Project\MAGNA_AIM\DEC\11\MAGNA_AIM\MAGNA_AIM\dist\out-tsc\src\environments\environment.js.map
E:\sgawade\Project\MAGNA_AIM\DEC\11\MAGNA_AIM\MAGNA_AIM\dist\out-tsc\src\main.js
E:\sgawade\Project\MAGNA_AIM\DEC\11\MAGNA_AIM\MAGNA_AIM\dist\out-tsc\src\main.js.map
E:\sgawade\Project\MAGNA_AIM\DEC\11\MAGNA_AIM\MAGNA_AIM\dist\out-tsc\src\polyfills.js
E:\sgawade\Project\MAGNA_AIM\DEC\11\MAGNA_AIM\MAGNA_AIM\dist\out-tsc\src\polyfills.js.map
E:\sgawade\Project\MAGNA_AIM\DEC\11\MAGNA_AIM\MAGNA_AIM\dist\out-tsc\src\test.js
E:\sgawade\Project\MAGNA_AIM\DEC\11\MAGNA_AIM\MAGNA_AIM\dist\out-tsc\src\test.js.map
E:\sgawade\Project\MAGNA_AIM\DEC\11\MAGNA_AIM\MAGNA_AIM\dist\out-tsc\src\environments\environment.prod.js
E:\sgawade\Project\MAGNA_AIM\DEC\11\MAGNA_AIM\MAGNA_AIM\dist\out-tsc\src\environments\environment.prod.js.map
E:\sgawade\Project\MAGNA_AIM\DEC\11\MAGNA_AIM\MAGNA_AIM\dist\out-tsc\src\app\app.component.spec.js
E:\sgawade\Project\MAGNA_AIM\DEC\11\MAGNA_AIM\MAGNA_AIM\dist\out-tsc\src\app\app.component.spec.js.map
E:\sgawade\Project\MAGNA_AIM\DEC\11\MAGNA_AIM\MAGNA_AIM\dist\out-tsc\src\app\Services\REPORTS\MoludeList.service.js
E:\sgawade\Project\MAGNA_AIM\DEC\11\MAGNA_AIM\MAGNA_AIM\dist\out-tsc\src\app\Services\REPORTS\MoludeList.service.js.map
E:\sgawade\Project\MAGNA_AIM\DEC\11\MAGNA_AIM\MAGNA_AIM\dist\out-tsc\src\app\Components\test\test.component.js
E:\sgawade\Project\MAGNA_AIM\DEC\11\MAGNA_AIM\MAGNA_AIM\dist\out-tsc\src\app\Components\test\test.component.js.map
E:\sgawade\Project\MAGNA_AIM\DEC\11\MAGNA_AIM\MAGNA_AIM\dist\out-tsc\src\app\Components\test\test.service.js
E:\sgawade\Project\MAGNA_AIM\DEC\11\MAGNA_AIM\MAGNA_AIM\dist\out-tsc\src\app\Components\test\test.service.js.map
E:\sgawade\Project\MAGNA_AIM\DEC\11\MAGNA_AIM\MAGNA_AIM\dist\out-tsc\src\app\Components\test\test.js
E:\sgawade\Project\MAGNA_AIM\DEC\11\MAGNA_AIM\MAGNA_AIM\dist\out-tsc\src\app\Components\test\test.js.map
E:\sgawade\Project\MAGNA_AIM\DEC\11\MAGNA_AIM\MAGNA_AIM\dist\out-tsc\src\app\Components\MODULE\MODULE.component.js
E:\sgawade\Project\MAGNA_AIM\DEC\11\MAGNA_AIM\MAGNA_AIM\dist\out-tsc\src\app\Components\MODULE\MODULE.component.js.map
E:\sgawade\Project\MAGNA_AIM\DEC\11\MAGNA_AIM\MAGNA_AIM\dist\out-tsc\e2e\app.po.js
E:\sgawade\Project\MAGNA_AIM\DEC\11\MAGNA_AIM\MAGNA_AIM\dist\out-tsc\e2e\app.po.js.map
E:\sgawade\Project\MAGNA_AIM\DEC\11\MAGNA_AIM\MAGNA_AIM\dist\out-tsc\e2e\app.e2e-spec.js
E:\sgawade\Project\MAGNA_AIM\DEC\11\MAGNA_AIM\MAGNA_AIM\dist\out-tsc\e2e\app.e2e-spec.js.map
